%YAML 1.1
%TAG !u! tag:unity3d.com,2011:
--- !u!1001 &3479533047277278072
PrefabInstance:
  m_ObjectHideFlags: 0
  serializedVersion: 2
  m_Modification:
    m_TransformParent: {fileID: 0}
    m_Modifications:
    - target: {fileID: 8178818744377380200, guid: 2c1e796fcf2964a41b1ad875a7ad65da,
        type: 3}
      propertyPath: m_Name
      value: Rock_5
      objectReference: {fileID: 0}
    - target: {fileID: 8181794217119635100, guid: 2c1e796fcf2964a41b1ad875a7ad65da,
        type: 3}
      propertyPath: m_RootOrder
      value: 0
      objectReference: {fileID: 0}
    - target: {fileID: 8181794217119635100, guid: 2c1e796fcf2964a41b1ad875a7ad65da,
        type: 3}
      propertyPath: m_LocalPosition.x
      value: 0.5
      objectReference: {fileID: 0}
    - target: {fileID: 8181794217119635100, guid: 2c1e796fcf2964a41b1ad875a7ad65da,
        type: 3}
      propertyPath: m_LocalPosition.y
      value: 1.7
      objectReference: {fileID: 0}
    - target: {fileID: 8181794217119635100, guid: 2c1e796fcf2964a41b1ad875a7ad65da,
        type: 3}
      propertyPath: m_LocalPosition.z
      value: 26.5
      objectReference: {fileID: 0}
    - target: {fileID: 8181794217119635100, guid: 2c1e796fcf2964a41b1ad875a7ad65da,
        type: 3}
      propertyPath: m_LocalRotation.w
      value: 0.9999822
      objectReference: {fileID: 0}
    - target: {fileID: 8181794217119635100, guid: 2c1e796fcf2964a41b1ad875a7ad65da,
        type: 3}
      propertyPath: m_LocalRotation.x
      value: 0.0031279086
      objectReference: {fileID: 0}
    - target: {fileID: 8181794217119635100, guid: 2c1e796fcf2964a41b1ad875a7ad65da,
        type: 3}
      propertyPath: m_LocalRotation.y
      value: 0.0029245643
      objectReference: {fileID: 0}
    - target: {fileID: 8181794217119635100, guid: 2c1e796fcf2964a41b1ad875a7ad65da,
        type: 3}
      propertyPath: m_LocalRotation.z
      value: 0.0041680294
      objectReference: {fileID: 0}
    - target: {fileID: 8181794217119635100, guid: 2c1e796fcf2964a41b1ad875a7ad65da,
        type: 3}
      propertyPath: m_LocalEulerAnglesHint.x
      value: 0
      objectReference: {fileID: 0}
    - target: {fileID: 8181794217119635100, guid: 2c1e796fcf2964a41b1ad875a7ad65da,
        type: 3}
      propertyPath: m_LocalEulerAnglesHint.y
      value: 0
      objectReference: {fileID: 0}
    - target: {fileID: 8181794217119635100, guid: 2c1e796fcf2964a41b1ad875a7ad65da,
        type: 3}
      propertyPath: m_LocalEulerAnglesHint.z
      value: 0
      objectReference: {fileID: 0}
    m_RemovedComponents: []
  m_SourcePrefab: {fileID: 100100000, guid: 2c1e796fcf2964a41b1ad875a7ad65da, type: 3}
